{
  "data": {
    "products": [
      {
        "id": "1",
        "name": "Parle G",
        "manufacturer": "Parle",
        "sku": "ABCD001",
        "unitQty": "200",
        "unit": "gm"
      },
      {
        "id": "2",
        "name": "Nimkin",
        "manufacturer": "Parle",
        "sku": "ABCD002",
        "unitQty": "100",
        "unit": "gm"
      },
      {
        "id": "3",
        "name": "20-20 Cookies",
        "manufacturer": "Parle",
        "sku": "ABCD003",
        "unitQty": "160",
        "unit": "gm"
      },
      {
        "id": "4",
        "name": "Monaco-Salted Craker",
        "manufacturer": "Parle",
        "sku": "ABCD004",
        "unitQty": "140",
        "unit": "gm"
      },
      {
        "id": "5",
        "name": "Parle Marie",
        "manufacturer": "Parle",
        "sku": "ABCD005",
        "unitQty": "400",
        "unit": "gm"
      },
      {
        "id": "6",
        "name": "Amul",
        "manufacturer": "Amul",
        "sku": "ABCD006",
        "unitQty": "500",
        "unit": "ml"
      },
      {
        "id": "7",
        "name": "Paras",
        "manufacturer": "Paras",
        "sku": "ABCD007",
        "unitQty": "500",
        "unit": "ml"
      },
      {
        "id": "8",
        "name": "Mother Dairy",
        "manufacturer": "Mother Dairy",
        "sku": "ABCD008",
        "unitQty": "500",
        "unit": "ml"
      },
      {
        "id": "9",
        "name": "Dairy Milk",
        "manufacturer": "Cadbury",
        "sku": "ABCD009",
        "unitQty": "140",
        "unit": "gm"
      },
      {
        "id": "10",
        "name": "5 Star",
        "manufacturer": "Cadbury",
        "sku": "ABCD010",
        "unitQty": "400",
        "unit": "gm"
      }
    ]
  }
}